lab 3: Covid-19
…
pop_url <- 'https://www2.census.gov/programs-surveys/popest/datasets/2020-2023/counties/totals/co-est2023-alldata.csv'

read_csv(pop_url)

Rows: 3195 Columns: 67
── Column specification ────────────────────────────────────────────────────────
Delimiter: ","
chr  (5): SUMLEV, STATE, COUNTY, STNAME, CTYNAME
dbl (62): REGION, DIVISION, ESTIMATESBASE2020, POPESTIMATE2020, POPESTIMATE2...

ℹ Use `spec()` to retrieve the full column specification for this data.
ℹ Specify the column types or set `show_col_types = FALSE` to quiet this message.

# A tibble: 3,195 × 67
   SUMLEV REGION DIVISION STATE COUNTY STNAME  CTYNAME         ESTIMATESBASE2020
   <chr>   <dbl>    <dbl> <chr> <chr>  <chr>   <chr>                       <dbl>
 1 040         3        6 01    000    Alabama Alabama                   5024294
 2 050         3        6 01    001    Alabama Autauga County              58809
 3 050         3        6 01    003    Alabama Baldwin County             231768
 4 050         3        6 01    005    Alabama Barbour County              25229
 5 050         3        6 01    007    Alabama Bibb County                 22301
 6 050         3        6 01    009    Alabama Blount County               59130
 7 050         3        6 01    011    Alabama Bullock County              10360
 8 050         3        6 01    013    Alabama Butler County               19046
 9 050         3        6 01    015    Alabama Calhoun County             116441
10 050         3        6 01    017    Alabama Chambers County             34772
# ℹ 3,185 more rows
# ℹ 59 more variables: POPESTIMATE2020 <dbl>, POPESTIMATE2021 <dbl>,
#   POPESTIMATE2022 <dbl>, POPESTIMATE2023 <dbl>, NPOPCHG2020 <dbl>,
#   NPOPCHG2021 <dbl>, NPOPCHG2022 <dbl>, NPOPCHG2023 <dbl>, BIRTHS2020 <dbl>,
#   BIRTHS2021 <dbl>, BIRTHS2022 <dbl>, BIRTHS2023 <dbl>, DEATHS2020 <dbl>,
#   DEATHS2021 <dbl>, DEATHS2022 <dbl>, DEATHS2023 <dbl>, NATURALCHG2020 <dbl>,
#   NATURALCHG2021 <dbl>, NATURALCHG2022 <dbl>, NATURALCHG2023 <dbl>, …
…
Rows: 3195 Columns: 67
── Column specification ────────────────────────────────────────────────────────
Delimiter: ","
chr  (5): SUMLEV, STATE, COUNTY, STNAME, CTYNAME
dbl (62): REGION, DIVISION, ESTIMATESBASE2020, POPESTIMATE2020, POPESTIMATE2...

ℹ Use `spec()` to retrieve the full column specification for this data.
ℹ Specify the column types or set `show_col_types = FALSE` to quiet this message.

pop <- pop %>%
  select(contains("2021"), contains("NAME"), contains("fips"))

pop

# A tibble: 3,144 × 19
   POPESTIMATE2021 NPOPCHG2021 BIRTHS2021 DEATHS2021 NATURALCHG2021
             <dbl>       <dbl>      <dbl>      <dbl>          <dbl>
 1           59203         288        686        696            -10
 2          239439        6212       2337       2948           -611
 3           24533        -436        270        390           -120
 4           22359         171        240        325            -85
 5           59079         -28        654        875           -221
 6           10143         -86        111        160            -49
 7           18890        -135        227        297            -70
 8          115678        -565       1250       1843           -593
 9           34488        -163        392        592           -200
10           25074         105        254        442           -188
# ℹ 3,134 more rows
# ℹ 14 more variables: INTERNATIONALMIG2021 <dbl>, DOMESTICMIG2021 <dbl>,
#   NETMIG2021 <dbl>, RESIDUAL2021 <dbl>, GQESTIMATES2021 <dbl>,
#   RBIRTH2021 <dbl>, RDEATH2021 <dbl>, RNATURALCHG2021 <dbl>,
#   RINTERNATIONALMIG2021 <dbl>, RDOMESTICMIG2021 <dbl>, RNETMIG2021 <dbl>,
#   STNAME <chr>, CTYNAME <chr>, fips <chr>
…
colorado <- colorado %>%
  inner_join(pop, by = "fips") %>%
  mutate(
    cases_per_capita = cases / POPESTIMATE2021, 
    deaths_per_capita = cases / POPESTIMATE2021,
    new_cases_per_capita = new_cases / POPESTIMATE2021, 
    new_deaths_per_capita = new_deaths / POPESTIMATE2021)
##check for x for POPESTIMATE2021

colorado_formatted <- colorado %>%
select(1:8, 11, 29:32)

colorado

# A tibble: 49,463 × 32
   date       county    state   fips  cases deaths new_cases new_deaths stateFIP
   <date>     <chr>     <chr>   <chr> <dbl>  <dbl>     <dbl>      <dbl> <chr>   
 1 2020-03-05 Douglas   Colora… 08035     1      0        NA         NA Colorado
 2 2020-03-05 Jefferson Colora… 08059     1      0        NA         NA Colorado
 3 2020-03-06 Denver    Colora… 08031     2      0        NA         NA Colorado
 4 2020-03-06 Douglas   Colora… 08035     3      0         2          0 Colorado
 5 2020-03-06 Eagle     Colora… 08037     1      0        NA         NA Colorado
 6 2020-03-06 El Paso   Colora… 08041     1      0        NA         NA Colorado
 7 2020-03-06 Jefferson Colora… 08059     1      0         0          0 Colorado
 8 2020-03-07 Denver    Colora… 08031     2      0         0          0 Colorado
 9 2020-03-07 Douglas   Colora… 08035     3      0         0          0 Colorado
10 2020-03-07 Eagle     Colora… 08037     1      0         0          0 Colorado
# ℹ 49,453 more rows
# ℹ 23 more variables: `sprintf("%03s", county)` <chr>, POPESTIMATE2021 <dbl>,
#   NPOPCHG2021 <dbl>, BIRTHS2021 <dbl>, DEATHS2021 <dbl>,
#   NATURALCHG2021 <dbl>, INTERNATIONALMIG2021 <dbl>, DOMESTICMIG2021 <dbl>,
#   NETMIG2021 <dbl>, RESIDUAL2021 <dbl>, GQESTIMATES2021 <dbl>,
#   RBIRTH2021 <dbl>, RDEATH2021 <dbl>, RNATURALCHG2021 <dbl>,
#   RINTERNATIONALMIG2021 <dbl>, RDOMESTICMIG2021 <dbl>, RNETMIG2021 <dbl>, …
…
Question 6:

library(dplyr)
states_daily_new_cases <- covid_data %>% 
  filter(state %in% c("New York", "Colorado", "Alabama", "Ohio")) %>%
  group_by(state, date) %>%
  summarise(daily_new_cases = sum(cases, na.rm = TRUE), .groups = "drop") %>%
  mutate(new_cases_lagged = abs(daily_new_cases - lag(daily_new_cases)), rolling_mean_7_day = zoo::rollmean(new_cases_lagged, k = 7, fill = NA, align = "right"))

states_daily_new_cases

# A tibble: 3,192 × 5
   state   date       daily_new_cases new_cases_lagged rolling_mean_7_day
   <chr>   <date>               <dbl>            <dbl>              <dbl>
 1 Alabama 2020-03-13               6               NA               NA  
 2 Alabama 2020-03-14              12                6               NA  
 3 Alabama 2020-03-15              23               11               NA  
 4 Alabama 2020-03-16              29                6               NA  
 5 Alabama 2020-03-17              39               10               NA  
 6 Alabama 2020-03-18              51               12               NA  
 7 Alabama 2020-03-19              78               27               NA  
 8 Alabama 2020-03-20             106               28               14.3
 9 Alabama 2020-03-21             131               25               17  
10 Alabama 2020-03-22             157               26               19.1
# ℹ 3,182 more rows
…
colnames(pop)[colnames(pop) == "STNAME"] <- "state"

state_cases_per_capita <- pop %>%
  inner_join(state_covid_pop_estimates, pop, by = "state") %>%
  mutate(new_cases_per_capita = new_cases_lagged / POPESTIMATE2021, rolling_mean_per_capita = zoo::rollmean(new_cases_per_capita, k = 7, fill = NA, align = "right", na.rm = TRUE)) 

Warning in inner_join(., state_covid_pop_estimates, pop, by = "state"): Detected an unexpected many-to-many relationship between `x` and `y`.
ℹ Row 1 of `x` matches multiple rows in `y`.
ℹ Row 1 of `y` matches multiple rows in `x`.
ℹ If a many-to-many relationship is expected, set `relationship =
  "many-to-many"` to silence this warning.

state_covid_pop_estimates

# A tibble: 3,192 × 4
   state   date       daily_new_cases new_cases_lagged
   <chr>   <date>               <dbl>            <dbl>
 1 Alabama 2020-03-13               6                1
 2 Alabama 2020-03-14              12                1
 3 Alabama 2020-03-15              23                3
 4 Alabama 2020-03-16              29                8
 5 Alabama 2020-03-17              39               11
 6 Alabama 2020-03-18              51               16
 7 Alabama 2020-03-19              78               12
 8 Alabama 2020-03-20             106               14
 9 Alabama 2020-03-21             131               38
10 Alabama 2020-03-22             157               90
# ℹ 3,182 more rows
…
location_url <-'https://raw.githubusercontent.com/mikejohnson51/csu-ess-330/refs/heads/main/resources/county-centroids.csv' 
location_data = read_csv(location_url)

Rows: 3221 Columns: 3
── Column specification ────────────────────────────────────────────────────────
Delimiter: ","
chr (1): fips
dbl (2): LON, LAT

ℹ Use `spec()` to retrieve the full column specification for this data.
ℹ Specify the column types or set `show_col_types = FALSE` to quiet this message.

location_data

# A tibble: 3,221 × 3
   fips     LON   LAT
   <chr>  <dbl> <dbl>
 1 01061  -85.8  31.1
 2 08125 -102.   40.0
 3 17177  -89.7  42.4
 4 28153  -88.7  31.6
 5 34041  -75.0  40.9
 6 46051  -96.8  45.2
 7 51013  -77.1  38.9
 8 21007  -89.0  37.1
 9 37091  -77.0  36.4
10 13057  -84.5  34.2
# ℹ 3,211 more rows

Covid_location_data <- full_join(covid_data, location_data, by = "fips")
Covid_location_data

# A tibble: 2,502,843 × 8
   date       county      state      fips  cases deaths    LON   LAT
   <date>     <chr>       <chr>      <chr> <dbl>  <dbl>  <dbl> <dbl>
 1 2020-01-21 Snohomish   Washington 53061     1      0 -122.   48.0
 2 2020-01-22 Snohomish   Washington 53061     1      0 -122.   48.0
 3 2020-01-23 Snohomish   Washington 53061     1      0 -122.   48.0
 4 2020-01-24 Cook        Illinois   17031     1      0  -87.8  41.8
 5 2020-01-24 Snohomish   Washington 53061     1      0 -122.   48.0
 6 2020-01-25 Orange      California 06059     1      0 -118.   33.7
 7 2020-01-25 Cook        Illinois   17031     1      0  -87.8  41.8
 8 2020-01-25 Snohomish   Washington 53061     1      0 -122.   48.0
 9 2020-01-26 Maricopa    Arizona    04013     1      0 -112.   33.3
10 2020-01-26 Los Angeles California 06037     1      0 -118.   34.3
# ℹ 2,502,833 more rows

weighted_center_mean <- Covid_location_data %>%
  group_by(date) %>%
  summarise(weight_mean_LON = sum(LON * cases, na.rm = TRUE) / sum(cases, na.rm = TRUE), weight_mean_LAT = sum(LAT * cases, na.rm = TRUE) / sum(cases, na.rm = TRUE), total_cases_per_day = sum(cases, na.rm = TRUE), month = format(date, "%m"), .groups = "drop")

Warning: Returning more (or less) than 1 row per `summarise()` group was deprecated in
dplyr 1.1.0.
ℹ Please use `reframe()` instead.
ℹ When switching from `summarise()` to `reframe()`, remember that `reframe()`
  always returns an ungrouped data frame and adjust accordingly.

weighted_center_mean

# A tibble: 2,502,843 × 5
   date       weight_mean_LON weight_mean_LAT total_cases_per_day month
   <date>               <dbl>           <dbl>               <dbl> <chr>
 1 2020-01-21           -122.            48.0                   1 01   
 2 2020-01-22           -122.            48.0                   1 01   
 3 2020-01-23           -122.            48.0                   1 01   
 4 2020-01-24           -105.            44.9                   2 01   
 5 2020-01-24           -105.            44.9                   2 01   
 6 2020-01-25           -109.            41.2                   3 01   
 7 2020-01-25           -109.            41.2                   3 01   
 8 2020-01-25           -109.            41.2                   3 01   
 9 2020-01-26           -112.            38.2                   5 01   
10 2020-01-26           -112.            38.2                   5 01   
# ℹ 2,502,833 more rows
…
